ReporteLab2
…
ReporteLab2

2022-08-02

Analisis exploratorio de Importaciones

Para las importaciones se tienen los siguientes datos:

data_impor

## # A tibble: 257 x 6
##    Fecha               Superior Regular  Diesel Total_Gasolinas Total_Importaci~
##    <dttm>                 <dbl>   <dbl>   <dbl>           <dbl>            <dbl>
##  1 2001-01-01 00:00:00  373964. 177776. 566102.         551740.         2312639.
##  2 2001-02-01 00:00:00  243091. 123116. 489526.         366207.         1769209.
##  3 2001-03-01 00:00:00  312084. 161726. 575560.         473811.         1945770.
##  4 2001-04-01 00:00:00  285055. 127339. 437745.         412394.         1623638.
##  5 2001-05-01 00:00:00  300914. 168730. 552609.         469644.         2262727.
##  6 2001-06-01 00:00:00  333217. 152899. 497855.         486116.         1824277.
##  7 2001-07-01 00:00:00  195072. 136299. 302350.         331371.         1394478.
##  8 2001-08-01 00:00:00  268153. 139365. 464159.         407518.         1972910.
##  9 2001-09-01 00:00:00  308439. 233644. 321953.         542083.         1844365.
## 10 2001-10-01 00:00:00  305102. 141550. 438990.         446652.         2035584.
## # ... with 247 more rows
…
Para el data_consumo se tienen los siguientes datos:

data_consumo

## # A tibble: 269 x 6
##    Fecha               `Gasolina supe~` `Gasolina regu~` Diesel `Total\r\ngaso~`
##    <dttm>                         <dbl>            <dbl>  <dbl>            <dbl>
##  1 2000-01-01 00:00:00          308157.          202645. 6.35e5          510802.
##  2 2000-02-01 00:00:00          307766.          205531. 6.42e5          513297.
##  3 2000-03-01 00:00:00          331910.          229500. 7.00e5          561410.
##  4 2000-04-01 00:00:00          315648.          210680. 5.87e5          526328.
##  5 2000-05-01 00:00:00          319668.          208164. 6.57e5          527832.
##  6 2000-06-01 00:00:00          300348.          195089. 5.71e5          495436.
##  7 2000-07-01 00:00:00          308306.          204557. 5.76e5          512863.
##  8 2000-08-01 00:00:00          323012.          218389. 5.94e5          541400.
##  9 2000-09-01 00:00:00          326456.          213907. 5.90e5          540363.
## 10 2000-10-01 00:00:00          323844.          213607. 6.41e5          537450.
## # ... with 259 more rows, and 1 more variable: `Total Consumo` <dbl>
…
